<?xml version="1.0" encoding="UTF-8" standalone="no"?>
<!-- Created with Inkscape (http://www.inkscape.org/) -->

<svg
   width="336.9859mm"
   height="122.04485mm"
   viewBox="0 0 336.9859 122.04485"
   version="1.1"
   id="svg365"
   inkscape:version="1.1 (c4e8f9e, 2021-05-24)"
   sodipodi:docname="2dDeltaCombined.svg"
   xmlns:inkscape="http://www.inkscape.org/namespaces/inkscape"
   xmlns:sodipodi="http://sodipodi.sourceforge.net/DTD/sodipodi-0.dtd"
   xmlns="http://www.w3.org/2000/svg"
   xmlns:svg="http://www.w3.org/2000/svg">
  <sodipodi:namedview
     id="namedview367"
     pagecolor="#ffffff"
     bordercolor="#666666"
     borderopacity="1.0"
     inkscape:pageshadow="2"
     inkscape:pageopacity="0.0"
     inkscape:pagecheckerboard="0"
     inkscape:document-units="mm"
     showgrid="false"
     fit-margin-top="0"
     fit-margin-left="0"
     fit-margin-right="0"
     fit-margin-bottom="0"
     inkscape:zoom="0.77771465"
     inkscape:cx="629.40823"
     inkscape:cy="356.81468"
     inkscape:window-width="1312"
     inkscape:window-height="1081"
     inkscape:window-x="154"
     inkscape:window-y="207"
     inkscape:window-maximized="0"
     inkscape:current-layer="layer1" />
  <defs
     id="defs362" />
  <g
     inkscape:label="Layer 1"
     inkscape:groupmode="layer"
     id="layer1"
     transform="translate(61.435519,-58.049733)">
    <g
       id="g377"
       transform="matrix(0.03527778,0,0,-0.03527778,109.74341,154.36055)">
      <path
         d="m 1085.53,2484.53 h 2026.74 v 170.074 H 1085.53 Z"
         style="fill:#ff0000;fill-opacity:1;fill-rule:nonzero;stroke:none"
         id="path379" />
      <path
         d="m 1085.53,2484.53 h 2026.74 v 170.074 H 1085.53 Z"
         style="fill:none;stroke:#000000;stroke-width:28.346;stroke-linecap:butt;stroke-linejoin:miter;stroke-miterlimit:10;stroke-dasharray:none;stroke-opacity:1"
         id="path381" />
      <path
         d="M 1092.91,2377.86 908.07,1712.46"
         style="fill:none;stroke:#0000ff;stroke-width:85.038;stroke-linecap:butt;stroke-linejoin:miter;stroke-miterlimit:10;stroke-dasharray:none;stroke-opacity:1"
         id="path383" />
      <path
         d="m 1130.84,2514.43 c 34.14,-9.49 58.8,-53.11 49.31,-87.25 -9.48,-34.14 -53.1,-58.8 -87.24,-49.32 -34.14,9.49 -58.8,53.11 -49.32,87.25 9.48,34.14 53.11,58.8 87.25,49.32"
         style="fill:#ffffff;fill-opacity:1;fill-rule:evenodd;stroke:none"
         id="path385" />
      <path
         d="m 1130.84,2514.43 c 34.14,-9.49 58.8,-53.11 49.31,-87.25 -9.48,-34.14 -53.1,-58.8 -87.24,-49.32 -34.14,9.49 -58.8,53.11 -49.32,87.25 9.48,34.14 53.11,58.8 87.25,49.32"
         style="fill:none;stroke:#0000ff;stroke-width:85.038;stroke-linecap:butt;stroke-linejoin:miter;stroke-miterlimit:10;stroke-dasharray:none;stroke-opacity:1"
         id="path387" />
      <path
         d="m 870.141,1575.9 c -34.141,9.49 -58.797,53.11 -49.317,87.25 9.485,34.14 53.11,58.8 87.246,49.31 34.141,-9.48 58.797,-53.1 49.317,-87.24 -9.485,-34.14 -53.11,-58.8 -87.246,-49.32"
         style="fill:#ffffff;fill-opacity:1;fill-rule:evenodd;stroke:none"
         id="path389" />
      <path
         d="m 870.141,1575.9 c -34.141,9.49 -58.797,53.11 -49.317,87.25 9.485,34.14 53.11,58.8 87.246,49.31 34.141,-9.48 58.797,-53.1 49.317,-87.24 -9.485,-34.14 -53.11,-58.8 -87.246,-49.32"
         style="fill:none;stroke:#0000ff;stroke-width:85.038;stroke-linecap:butt;stroke-linejoin:miter;stroke-miterlimit:10;stroke-dasharray:none;stroke-opacity:1"
         id="path391" />
      <path
         d="m 3205.96,2448.95 583.79,-413.2"
         style="fill:none;stroke:#0000ff;stroke-width:85.038;stroke-linecap:butt;stroke-linejoin:miter;stroke-miterlimit:10;stroke-dasharray:none;stroke-opacity:1"
         id="path393" />
      <path
         d="m 3090.28,2530.83 c 20.47,28.92 69.86,37.37 98.78,16.9 28.92,-20.47 37.37,-69.86 16.9,-98.78 -20.47,-28.92 -69.86,-37.38 -98.78,-16.9 -28.92,20.47 -37.37,69.86 -16.9,98.78"
         style="fill:#ffffff;fill-opacity:1;fill-rule:evenodd;stroke:none"
         id="path395" />
      <path
         d="m 3090.28,2530.83 c 20.47,28.92 69.86,37.37 98.78,16.9 28.92,-20.47 37.37,-69.86 16.9,-98.78 -20.47,-28.92 -69.86,-37.38 -98.78,-16.9 -28.92,20.47 -37.37,69.86 -16.9,98.78"
         style="fill:none;stroke:#0000ff;stroke-width:85.038;stroke-linecap:butt;stroke-linejoin:miter;stroke-miterlimit:10;stroke-dasharray:none;stroke-opacity:1"
         id="path397" />
      <path
         d="m 3905.43,1953.87 c -20.47,-28.92 -69.86,-37.37 -98.78,-16.91 -28.92,20.47 -37.37,69.87 -16.9,98.79 20.47,28.92 69.86,37.37 98.78,16.9 28.92,-20.47 37.38,-69.86 16.9,-98.78"
         style="fill:#ffffff;fill-opacity:1;fill-rule:evenodd;stroke:none"
         id="path399" />
      <path
         d="m 3905.43,1953.87 c -20.47,-28.92 -69.86,-37.37 -98.78,-16.91 -28.92,20.47 -37.37,69.87 -16.9,98.79 20.47,28.92 69.86,37.37 98.78,16.9 28.92,-20.47 37.38,-69.86 16.9,-98.78"
         style="fill:none;stroke:#0000ff;stroke-width:85.038;stroke-linecap:butt;stroke-linejoin:miter;stroke-miterlimit:10;stroke-dasharray:none;stroke-opacity:1"
         id="path401" />
      <path
         d="M 2630.38,443.613 3820.92,1960.12"
         style="fill:none;stroke:#1e90ff;stroke-width:85.038;stroke-linecap:butt;stroke-linejoin:miter;stroke-miterlimit:10;stroke-dasharray:none;stroke-opacity:1"
         id="path403" />
      <path
         d="m 3820.92,1960.12 c 11.14,-8.74 13.54,-28.65 4.79,-39.79 -8.75,-11.15 -28.65,-13.55 -39.8,-4.79 -11.15,8.75 -13.55,28.64 -4.79,39.79 8.75,11.15 28.65,13.55 39.8,4.79"
         style="fill:#1e90ff;fill-opacity:1;fill-rule:evenodd;stroke:none"
         id="path405" />
      <path
         d="m 3820.92,1960.12 c 11.14,-8.74 13.54,-28.65 4.79,-39.79 -8.75,-11.15 -28.65,-13.55 -39.8,-4.79 -11.15,8.75 -13.55,28.64 -4.79,39.79 8.75,11.15 28.65,13.55 39.8,4.79"
         style="fill:none;stroke:#1e90ff;stroke-width:85.038;stroke-linecap:butt;stroke-linejoin:miter;stroke-miterlimit:10;stroke-dasharray:none;stroke-opacity:1"
         id="path407" />
      <path
         d="M 2545.95,514.418 942.379,1538.24"
         style="fill:none;stroke:#1e90ff;stroke-width:85.038;stroke-linecap:butt;stroke-linejoin:miter;stroke-miterlimit:10;stroke-dasharray:none;stroke-opacity:1"
         id="path409" />
      <path
         d="m 2665.41,438.148 c -19.07,-29.863 -68,-40.66 -97.86,-21.593 -29.87,19.066 -40.66,68 -21.6,97.863 19.07,29.867 68,40.664 97.87,21.598 29.86,-19.071 40.66,-68 21.59,-97.868"
         style="fill:#ffffff;fill-opacity:1;fill-rule:evenodd;stroke:none"
         id="path411" />
      <path
         d="m 2665.41,438.148 c -19.07,-29.863 -68,-40.66 -97.86,-21.593 -29.87,19.066 -40.66,68 -21.6,97.863 19.07,29.867 68,40.664 97.87,21.598 29.86,-19.071 40.66,-68 21.59,-97.868"
         style="fill:none;stroke:#1e90ff;stroke-width:85.038;stroke-linecap:butt;stroke-linejoin:miter;stroke-miterlimit:10;stroke-dasharray:none;stroke-opacity:1"
         id="path413" />
      <path
         d="m 894.598,1568.75 c 7.625,11.94 27.199,16.26 39.144,8.64 11.946,-7.63 16.266,-27.21 8.637,-39.15 -7.625,-11.95 -27.199,-16.27 -39.145,-8.64 -11.945,7.63 -16.265,27.2 -8.636,39.15"
         style="fill:#ffffff;fill-opacity:1;fill-rule:evenodd;stroke:none"
         id="path415" />
      <path
         d="m 894.598,1568.75 c 7.625,11.94 27.199,16.26 39.144,8.64 11.946,-7.63 16.266,-27.21 8.637,-39.15 -7.625,-11.95 -27.199,-16.27 -39.145,-8.64 -11.945,7.63 -16.265,27.2 -8.636,39.15"
         style="fill:none;stroke:#1e90ff;stroke-width:85.038;stroke-linecap:butt;stroke-linejoin:miter;stroke-miterlimit:10;stroke-dasharray:none;stroke-opacity:1"
         id="path417" />
      <path
         d="m 3363.64,2214.18 h 18.78 v -126.72 h 70.4 v -16.43 h -89.18 v 143.15"
         style="fill:#000000;fill-opacity:1;fill-rule:nonzero;stroke:none"
         id="path419" />
      <path
         d="m 3484.07,2014.25 h 30.51 v 114.98 l -35.2,-7.04 v 14.08 l 34.46,7.04 h 19.51 v -129.06 h 30.51 v -14.08 h -79.79 v 14.08"
         style="fill:#000000;fill-opacity:1;fill-rule:nonzero;stroke:none"
         id="path421" />
      <path
         d="m 1160.99,2131.62 h 18.78 V 2004.9 h 70.39 v -16.43 h -89.17 v 143.15"
         style="fill:#000000;fill-opacity:1;fill-rule:nonzero;stroke:none"
         id="path423" />
      <path
         d="m 1253.07,1903.34 h 30.5 v 114.99 l -35.19,-7.04 v 14.08 l 34.46,7.04 h 19.51 v -129.07 h 30.51 v -14.08 h -79.79 v 14.08"
         style="fill:#000000;fill-opacity:1;fill-rule:nonzero;stroke:none"
         id="path425" />
      <path
         d="m 1535.33,1477.18 h 18.77 v -126.72 h 70.4 v -16.42 h -89.17 v 143.14"
         style="fill:#000000;fill-opacity:1;fill-rule:nonzero;stroke:none"
         id="path427" />
      <path
         d="m 1638.22,1248.91 h 67.4 v -14.09 h -89.95 v 14.09 c 7.34,7.89 17.32,18.48 29.96,31.75 12.64,13.3 20.58,21.86 23.83,25.7 6.16,7.24 10.47,13.36 12.91,18.37 2.47,5.01 3.7,9.94 3.7,14.78 0,7.87 -2.7,14.29 -8.1,19.25 -5.38,4.99 -12.39,7.48 -21.05,7.48 -6.13,0 -12.61,-1.36 -19.43,-4.07 -6.79,-2.72 -14.07,-6.83 -21.82,-12.36 v 21.12 c 7.8,3.11 15.08,5.44 21.86,7 6.77,1.59 12.98,2.39 18.62,2.39 14.81,0 26.64,-3.77 35.46,-11.3 8.82,-7.52 13.24,-17.58 13.24,-30.17 0,-5.97 -1.1,-11.63 -3.3,-16.98 -2.2,-5.35 -6.2,-11.67 -12,-18.96 -1.58,-1.88 -6.66,-7.32 -15.21,-16.31 -8.53,-8.97 -20.57,-21.54 -36.12,-37.69"
         style="fill:#000000;fill-opacity:1;fill-rule:nonzero;stroke:none"
         id="path429" />
      <path
         d="m 2907.28,1454.5 h 18.77 v -126.71 h 70.4 v -16.43 h -89.17 v 143.14"
         style="fill:#000000;fill-opacity:1;fill-rule:nonzero;stroke:none"
         id="path431" />
      <path
         d="m 3024.34,1240.4 h 67.39 v -14.08 h -89.94 v 14.08 c 7.33,7.9 17.32,18.48 29.96,31.76 12.64,13.29 20.58,21.86 23.83,25.7 6.16,7.23 10.47,13.35 12.91,18.37 2.47,5.01 3.7,9.93 3.7,14.77 0,7.88 -2.7,14.29 -8.1,19.25 -5.38,4.99 -12.39,7.48 -21.05,7.48 -6.13,0 -12.61,-1.35 -19.43,-4.07 -6.8,-2.71 -14.07,-6.83 -21.82,-12.35 v 21.12 c 7.8,3.1 15.09,5.44 21.86,7 6.77,1.59 12.97,2.38 18.62,2.38 14.82,0 26.64,-3.76 35.46,-11.29 8.82,-7.53 13.23,-17.59 13.23,-30.18 0,-5.96 -1.09,-11.62 -3.3,-16.97 -2.2,-5.35 -6.19,-11.67 -11.98,-18.96 -1.59,-1.88 -6.66,-7.32 -15.22,-16.32 -8.53,-8.97 -20.57,-21.53 -36.12,-37.69"
         style="fill:#000000;fill-opacity:1;fill-rule:nonzero;stroke:none"
         id="path433" />
      <path
         d="M 14.2188,2482.05 4354.9,2495.79"
         style="fill:none;stroke:#000000;stroke-width:28.346;stroke-linecap:butt;stroke-linejoin:miter;stroke-miterlimit:10;stroke-dasharray:56.692;stroke-dashoffset:0;stroke-opacity:1"
         id="path435" />
      <path
         d="m 4461.2,2496.12 -141.51,-71.31 35.21,70.98 -35.66,70.75"
         style="fill:#000000;fill-opacity:1;fill-rule:evenodd;stroke:none"
         id="path437" />
      <path
         d="m 4461.2,2496.12 -141.51,-71.31 35.21,70.98 -35.66,70.75 z"
         style="fill:none;stroke:#000000;stroke-width:28.346;stroke-linecap:butt;stroke-linejoin:miter;stroke-miterlimit:10;stroke-dasharray:none;stroke-opacity:1"
         id="path439" />
      <path
         d="m 810.305,2015.18 c -89.075,92.75 -138.821,216.38 -138.821,344.98 0,31.39 2.969,62.72 8.864,93.54"
         style="fill:none;stroke:#000000;stroke-width:28.346;stroke-linecap:butt;stroke-linejoin:miter;stroke-miterlimit:10;stroke-dasharray:56.692;stroke-dashoffset:0;stroke-opacity:1"
         id="path441" />
      <path
         d="m 888.195,1947.95 -158.05,11.36 66.628,42.87 5.68,79.03"
         style="fill:#000000;fill-opacity:1;fill-rule:evenodd;stroke:none"
         id="path443" />
      <path
         d="m 888.195,1947.95 -158.05,11.36 66.628,42.87 5.68,79.03 z"
         style="fill:none;stroke:#000000;stroke-width:28.346;stroke-linecap:butt;stroke-linejoin:miter;stroke-miterlimit:10;stroke-dasharray:none;stroke-opacity:1"
         id="path445" />
      <path
         d="m 3812.58,2467.88 c 5.95,-22.91 8.97,-46.49 8.97,-70.17 0,-44.73 -10.76,-88.82 -31.37,-128.53"
         style="fill:none;stroke:#000000;stroke-width:28.346;stroke-linecap:butt;stroke-linejoin:miter;stroke-miterlimit:10;stroke-dasharray:56.692;stroke-dashoffset:0;stroke-opacity:1"
         id="path447" />
      <path
         d="m 3733.09,2191.46 72.39,140.96 13.33,-78.1 70.48,-36.19"
         style="fill:#000000;fill-opacity:1;fill-rule:evenodd;stroke:none"
         id="path449" />
      <path
         d="m 3733.09,2191.46 72.39,140.96 13.33,-78.1 70.48,-36.19 z"
         style="fill:none;stroke:#000000;stroke-width:28.346;stroke-linecap:butt;stroke-linejoin:miter;stroke-miterlimit:10;stroke-dasharray:none;stroke-opacity:1"
         id="path451" />
      <path
         d="m 523.516,2292.82 c 0,9.61 -1.688,18.47 -5.063,26.59 -3.371,8.11 -8.039,14.98 -14.004,20.61 -6.086,5.74 -13.238,10.23 -21.449,13.45 -8.191,3.25 -16.977,4.88 -26.363,4.88 -9.535,0 -18.407,-1.67 -26.621,-4.99 -8.188,-3.3 -15.129,-7.63 -20.828,-12.98 -6.208,-5.86 -10.997,-12.83 -14.372,-20.9 -3.375,-8.04 -5.058,-16.99 -5.058,-26.84 0,-9 1.586,-17.49 4.765,-25.48 3.176,-7.97 7.676,-14.95 13.493,-20.94 5.816,-5.99 12.82,-10.7 21.011,-14.15 8.211,-3.42 17.414,-5.13 27.61,-5.13 10.191,0 19.418,1.74 27.683,5.24 8.262,3.5 15.301,8.24 21.118,14.23 5.843,5.98 10.316,12.98 13.421,20.97 3.102,7.99 4.657,16.48 4.657,25.44 m -23.469,-1.32 c 0,-9.26 -0.758,-16.71 -2.274,-22.36 -1.488,-5.65 -3.48,-10.79 -5.976,-15.44 -1.563,-3 -3.629,-5.73 -6.195,-8.17 -2.543,-2.45 -5.352,-4.51 -8.434,-6.2 -3.078,-1.69 -6.391,-3.01 -9.938,-3.96 -3.519,-0.93 -7.05,-1.39 -10.593,-1.39 -3.938,0 -7.699,0.5 -11.293,1.5 -3.594,1 -6.93,2.41 -10.012,4.22 -3.078,1.83 -5.828,3.99 -8.25,6.48 -2.418,2.52 -4.426,5.23 -6.012,8.11 -3.129,6.01 -5.218,12.03 -6.269,18.04 -1.051,6.01 -1.578,12.4 -1.578,19.17 0,9.29 0.879,17.13 2.64,23.51 1.785,6.4 3.594,11.43 5.426,15.07 3.399,6.74 8.203,11.96 14.41,15.65 6.235,3.72 13.274,5.58 21.121,5.58 7.871,0 14.848,-1.88 20.934,-5.65 6.09,-3.76 10.965,-9.15 14.633,-16.17 2.222,-4.13 4.054,-9.52 5.5,-16.17 1.441,-6.65 2.16,-13.92 2.16,-21.82 m -15.473,-18.36 c -0.242,2.2 -0.5,4.88 -0.769,8.06 -0.27,3.18 -0.403,6.64 -0.403,10.38 0,3.76 0.133,7.24 0.403,10.45 0.269,3.22 0.527,5.82 0.769,7.77 l -2.933,0.18 c -2.2,-6.86 -6.477,-10.3 -12.832,-10.3 h -24.934 c -2.59,0 -5.059,0.68 -7.406,2.02 -2.348,1.37 -4.168,4.13 -5.465,8.28 l -2.895,-0.18 c 0.246,-2.47 0.5,-5.18 0.77,-8.14 0.269,-2.96 0.402,-6.32 0.402,-10.08 0,-3.74 -0.133,-7.2 -0.402,-10.38 -0.27,-3.18 -0.524,-5.86 -0.77,-8.06 l 2.895,-0.23 c 1.445,4.16 3.301,6.92 5.574,8.29 2.274,1.37 4.902,2.05 7.883,2.05 h 24.348 c 2.714,0 5.207,-0.71 7.48,-2.16 2.273,-1.41 4.059,-4.14 5.352,-8.18 l 2.933,0.23"
         style="fill:#000000;fill-opacity:1;fill-rule:nonzero;stroke:none"
         id="path453" />
      <path
         d="m 536.086,2170.15 h 30.508 v 114.99 l -35.199,-7.04 v 14.08 l 34.464,7.03 h 19.508 v -129.06 h 30.504 v -14.08 h -79.785 v 14.08"
         style="fill:#000000;fill-opacity:1;fill-rule:nonzero;stroke:none"
         id="path455" />
      <path
         d="m 4123.46,2278.65 c 0,9.61 -1.69,18.47 -5.06,26.58 -3.38,8.12 -8.04,14.99 -14.01,20.61 -6.09,5.75 -13.24,10.23 -21.45,13.46 -8.19,3.25 -16.98,4.88 -26.36,4.88 -9.54,0 -18.41,-1.67 -26.62,-4.99 -8.19,-3.3 -15.13,-7.63 -20.83,-12.98 -6.21,-5.87 -11,-12.83 -14.37,-20.9 -3.37,-8.04 -5.06,-16.99 -5.06,-26.84 0,-9 1.59,-17.49 4.76,-25.49 3.18,-7.96 7.68,-14.94 13.5,-20.93 5.82,-5.99 12.82,-10.71 21.01,-14.16 8.21,-3.42 17.41,-5.13 27.61,-5.13 10.19,0 19.42,1.75 27.68,5.25 8.26,3.49 15.3,8.23 21.12,14.22 5.84,5.99 10.32,12.98 13.42,20.98 3.11,7.99 4.66,16.47 4.66,25.44 m -23.47,-1.32 c 0,-9.26 -0.76,-16.72 -2.27,-22.37 -1.49,-5.64 -3.49,-10.79 -5.98,-15.43 -1.56,-3.01 -3.63,-5.73 -6.2,-8.18 -2.54,-2.44 -5.35,-4.51 -8.43,-6.19 -3.08,-1.69 -6.39,-3.01 -9.93,-3.96 -3.53,-0.93 -7.06,-1.4 -10.6,-1.4 -3.94,0 -7.7,0.5 -11.29,1.5 -3.6,1.01 -6.93,2.41 -10.02,4.22 -3.07,1.84 -5.82,4 -8.25,6.49 -2.41,2.52 -4.42,5.22 -6.01,8.11 -3.13,6.01 -5.22,12.02 -6.27,18.04 -1.05,6.01 -1.58,12.4 -1.58,19.17 0,9.29 0.88,17.13 2.64,23.51 1.79,6.4 3.6,11.42 5.43,15.07 3.4,6.74 8.2,11.96 14.41,15.65 6.24,3.72 13.27,5.58 21.12,5.58 7.87,0 14.85,-1.89 20.94,-5.65 6.09,-3.77 10.96,-9.16 14.63,-16.17 2.22,-4.13 4.06,-9.52 5.5,-16.17 1.44,-6.65 2.16,-13.92 2.16,-21.82 m -15.47,-18.37 c -0.25,2.2 -0.5,4.89 -0.77,8.07 -0.27,3.18 -0.41,6.63 -0.41,10.38 0,3.76 0.14,7.24 0.41,10.45 0.27,3.22 0.52,5.81 0.77,7.77 l -2.93,0.18 c -2.21,-6.87 -6.48,-10.3 -12.84,-10.3 h -24.93 c -2.59,0 -5.06,0.67 -7.41,2.02 -2.34,1.36 -4.17,4.13 -5.46,8.28 l -2.9,-0.18 c 0.25,-2.47 0.5,-5.18 0.77,-8.14 0.27,-2.96 0.4,-6.32 0.4,-10.08 0,-3.75 -0.13,-7.2 -0.4,-10.38 -0.27,-3.18 -0.52,-5.87 -0.77,-8.07 l 2.9,-0.22 c 1.44,4.16 3.3,6.92 5.57,8.29 2.27,1.37 4.9,2.05 7.89,2.05 h 24.34 c 2.71,0 5.21,-0.72 7.48,-2.16 2.27,-1.42 4.06,-4.14 5.36,-8.18 l 2.93,0.22"
         style="fill:#000000;fill-opacity:1;fill-rule:nonzero;stroke:none"
         id="path457" />
      <path
         d="m 4146.84,2113.46 h 67.4 v -14.08 h -89.94 v 14.08 c 7.33,7.9 17.31,18.48 29.95,31.75 12.64,13.3 20.58,21.87 23.84,25.7 6.16,7.24 10.46,13.36 12.9,18.38 2.47,5.01 3.71,9.93 3.71,14.77 0,7.87 -2.71,14.29 -8.11,19.25 -5.38,4.99 -12.39,7.48 -21.05,7.48 -6.13,0 -12.61,-1.36 -19.43,-4.07 -6.79,-2.71 -14.07,-6.83 -21.81,-12.36 v 21.12 c 7.79,3.11 15.08,5.44 21.85,7.01 6.77,1.58 12.98,2.38 18.62,2.38 14.82,0 26.64,-3.76 35.46,-11.29 8.82,-7.53 13.24,-17.59 13.24,-30.18 0,-5.96 -1.1,-11.62 -3.3,-16.97 -2.2,-5.36 -6.2,-11.68 -11.99,-18.96 -1.59,-1.88 -6.66,-7.32 -15.22,-16.32 -8.53,-8.97 -20.57,-21.53 -36.12,-37.69"
         style="fill:#000000;fill-opacity:1;fill-rule:nonzero;stroke:none"
         id="path459" />
      <path
         d="m 2563.84,322.168 c -8.73,-14.594 -15.22,-29.043 -19.47,-43.34 -4.23,-14.277 -6.34,-28.734 -6.34,-43.379 0,-14.664 2.12,-29.183 6.38,-43.558 4.27,-14.371 10.75,-28.832 19.43,-43.375 h -15.66 c -9.68,14.91 -16.93,29.562 -21.74,43.961 -4.79,14.421 -7.19,28.746 -7.19,42.972 0,14.156 2.39,28.395 7.15,42.719 4.8,14.348 12.05,29.016 21.78,44 h 15.66"
         style="fill:#000000;fill-opacity:1;fill-rule:nonzero;stroke:none"
         id="path461" />
      <path
         d="m 2686.3,279.926 -37.91,-51.367 40.26,-54.231 h -20.46 l -30.73,41.469 -31.27,-41.469 h -20.79 l 41.94,55.258 -37.25,50.34 h 20.31 l 27.8,-37.617 27.79,37.617 h 20.31"
         style="fill:#000000;fill-opacity:1;fill-rule:nonzero;stroke:none"
         id="path463" />
      <path
         d="m 2722.4,197.793 h 21.12 v -16.387 l -16.42,-30.543 h -11.74 l 7.04,30.543 v 16.387"
         style="fill:#000000;fill-opacity:1;fill-rule:nonzero;stroke:none"
         id="path465" />
      <path
         d="m 2823.89,164.391 c -4.94,-12.391 -9.74,-20.485 -14.41,-24.274 -4.67,-3.789 -10.93,-5.683 -18.77,-5.683 h -13.98 v 14.082 H 2787 c 4.82,0 8.55,1.136 11.18,3.41 2.67,2.273 5.62,7.648 8.84,16.133 l 3.12,7.918 -42.79,103.949 h 18.29 l 33.23,-82.61 33.22,82.61 h 18.51 l -46.71,-115.535"
         style="fill:#000000;fill-opacity:1;fill-rule:nonzero;stroke:none"
         id="path467" />
      <path
         d="m 2897.32,322.168 h 15.65 c 9.68,-14.984 16.92,-29.652 21.71,-44 4.81,-14.324 7.22,-28.563 7.22,-42.719 0,-14.226 -2.41,-28.551 -7.22,-42.972 -4.79,-14.399 -12.03,-29.051 -21.71,-43.961 h -15.65 c 8.67,14.543 15.14,29.004 19.39,43.375 4.28,14.375 6.42,28.894 6.42,43.558 0,14.645 -2.14,29.102 -6.42,43.379 -4.25,14.297 -10.72,28.746 -19.39,43.34"
         style="fill:#000000;fill-opacity:1;fill-rule:nonzero;stroke:none"
         id="path469" />
      <path
         d="m 4697.7,2545.13 -37.91,-51.37 40.25,-54.23 h -20.46 l -30.72,41.47 -31.28,-41.47 h -20.79 l 41.95,55.26 -37.26,50.34 h 20.32 l 27.79,-37.62 27.79,37.62 h 20.32"
         style="fill:#000000;fill-opacity:1;fill-rule:nonzero;stroke:none"
         id="path471" />
      <path
         d="M 2134.33,2569.57 V 354.836"
         style="fill:none;stroke:#000000;stroke-width:28.346;stroke-linecap:butt;stroke-linejoin:miter;stroke-miterlimit:10;stroke-dasharray:56.692;stroke-dashoffset:0;stroke-opacity:1"
         id="path473" />
      <path
         d="m 2134.33,248.539 -70.87,141.731 70.87,-35.434 70.87,35.434"
         style="fill:#000000;fill-opacity:1;fill-rule:evenodd;stroke:none"
         id="path475" />
      <path
         d="m 2134.33,248.539 -70.87,141.731 70.87,-35.434 70.87,35.434 z"
         style="fill:none;stroke:#000000;stroke-width:28.346;stroke-linecap:butt;stroke-linejoin:miter;stroke-miterlimit:10;stroke-dasharray:none;stroke-opacity:1"
         id="path477" />
      <path
         d="m 2153.04,36.8359 c -4.93,-12.3945 -9.74,-20.4843 -14.41,-24.2734 -4.67,-3.78906 -10.92,-5.68359 -18.77,-5.68359 h -13.97 V 20.957 h 10.27 c 4.81,0 8.54,1.1368 11.18,3.4102 2.66,2.2734 5.61,7.6523 8.84,16.1328 l 3.11,7.9219 -42.79,103.9491 h 18.3 l 33.22,-82.6093 33.22,82.6093 h 18.51 L 2153.04,36.8359"
         style="fill:#000000;fill-opacity:1;fill-rule:nonzero;stroke:none"
         id="path479" />
      <path
         d="m 2205.2,2569.57 c 0,-31.31 -25.39,-56.69 -56.7,-56.69 -31.31,0 -56.69,25.38 -56.69,56.69 0,31.31 25.38,56.69 56.69,56.69 31.31,0 56.7,-25.38 56.7,-56.69"
         style="fill:#000000;fill-opacity:1;fill-rule:nonzero;stroke:none"
         id="path481" />
      <path
         d="m 2205.2,2569.57 c 0,-31.31 -25.39,-56.69 -56.7,-56.69 -31.31,0 -56.69,25.38 -56.69,56.69 0,31.31 25.38,56.69 56.69,56.69 31.31,0 56.7,-25.38 56.7,-56.69 z"
         style="fill:none;stroke:#000000;stroke-width:28.346;stroke-linecap:butt;stroke-linejoin:miter;stroke-miterlimit:10;stroke-dasharray:none;stroke-opacity:1"
         id="path483" />
      <path
         d="m 2507.43,2400.91 h 18.77 v -126.72 h 70.4 v -16.43 h -89.17 v 143.15"
         style="fill:#000000;fill-opacity:1;fill-rule:nonzero;stroke:none"
         id="path485" />
      <path
         d="m 2648.84,2346.65 c -10.12,0 -17.73,-4.99 -22.84,-14.96 -5.09,-9.95 -7.63,-24.92 -7.63,-44.91 0,-19.95 2.54,-34.91 7.63,-44.88 5.11,-9.95 12.72,-14.93 22.84,-14.93 10.17,0 17.8,4.98 22.88,14.93 5.11,9.97 7.66,24.93 7.66,44.88 0,19.99 -2.55,34.96 -7.66,44.91 -5.08,9.97 -12.71,14.96 -22.88,14.96 m 0.04,14.08 c 15.98,0 28.19,-6.32 36.63,-18.95 8.43,-12.62 12.65,-30.95 12.65,-55 0,-24.01 -4.22,-42.33 -12.65,-54.97 -8.44,-12.61 -20.65,-18.92 -36.63,-18.92 -15.99,0 -28.2,6.31 -36.63,18.92 -8.43,12.64 -12.65,30.96 -12.65,54.97 0,24.05 4.22,42.38 12.65,55 8.43,12.63 20.64,18.95 36.63,18.95"
         style="fill:#000000;fill-opacity:1;fill-rule:nonzero;stroke:none"
         id="path487" />
      <path
         d="m 1234.34,2484.53 c 0,-74.36 -60.28,-134.65 -134.64,-134.65 -74.36,0 -134.645,60.29 -134.645,134.65 0,74.36 60.285,134.64 134.645,134.64 74.36,0 134.64,-60.28 134.64,-134.64"
         style="fill:#00ff00;fill-opacity:1;fill-rule:nonzero;stroke:none"
         id="path489" />
      <path
         d="m 1234.34,2484.53 c 0,-74.36 -60.28,-134.65 -134.64,-134.65 -74.36,0 -134.645,60.29 -134.645,134.65 0,74.36 60.285,134.64 134.645,134.64 74.36,0 134.64,-60.28 134.64,-134.64 z"
         style="fill:none;stroke:#00ff00;stroke-width:28.346;stroke-linecap:butt;stroke-linejoin:miter;stroke-miterlimit:10;stroke-dasharray:none;stroke-opacity:1"
         id="path491" />
      <path
         d="m 3289.43,2498.7 c 0,-74.36 -60.29,-134.64 -134.64,-134.64 -74.36,0 -134.65,60.28 -134.65,134.64 0,74.36 60.29,134.64 134.65,134.64 74.35,0 134.64,-60.28 134.64,-134.64"
         style="fill:#00ff00;fill-opacity:1;fill-rule:nonzero;stroke:none"
         id="path493" />
      <path
         d="m 3289.43,2498.7 c 0,-74.36 -60.29,-134.64 -134.64,-134.64 -74.36,0 -134.65,60.28 -134.65,134.64 0,74.36 60.29,134.64 134.65,134.64 74.35,0 134.64,-60.28 134.64,-134.64 z"
         style="fill:none;stroke:#00ff00;stroke-width:28.346;stroke-linecap:butt;stroke-linejoin:miter;stroke-miterlimit:10;stroke-dasharray:none;stroke-opacity:1"
         id="path495" />
      <path
         d="m 324.504,1711.12 c -8.727,-14.59 -15.215,-29.04 -19.469,-43.34 -4.226,-14.28 -6.344,-28.73 -6.344,-43.37 0,-14.67 2.129,-29.19 6.383,-43.57 4.278,-14.37 10.754,-28.83 19.43,-43.37 h -15.656 c -9.68,14.91 -16.926,29.57 -21.743,43.96 -4.789,14.43 -7.187,28.75 -7.187,42.98 0,14.15 2.383,28.39 7.152,42.71 4.789,14.35 12.051,29.02 21.778,44 h 15.656"
         style="fill:#000000;fill-opacity:1;fill-rule:nonzero;stroke:none"
         id="path497" />
      <path
         d="m 408.027,1617.25 c -14.492,0 -24.539,-1.63 -30.136,-4.91 -5.575,-3.27 -8.36,-8.87 -8.36,-16.79 0,-6.31 2.09,-11.31 6.27,-15 4.203,-3.69 9.91,-5.53 17.121,-5.53 9.926,0 17.894,3.48 23.906,10.44 6.016,7 9.02,16.29 9.02,27.87 v 3.92 h -17.821 m 34.246,7.45 v -61.42 h -16.425 v 16.43 c -4.008,-6.41 -9.008,-11.14 -14.996,-14.19 -5.989,-3.06 -13.309,-4.59 -21.961,-4.59 -10.93,0 -19.629,3.07 -26.11,9.21 -6.453,6.16 -9.679,14.41 -9.679,24.75 0,12.05 3.984,21.13 11.953,27.24 7.968,6.14 19.851,9.21 35.64,9.21 h 25.153 v 1.54 c 0,7.72 -2.688,13.69 -8.067,17.92 -5.375,4.24 -12.929,6.35 -22.66,6.35 -6.183,0 -12.207,-0.78 -18.074,-2.35 -5.867,-1.56 -11.5,-3.91 -16.902,-7.04 v 16.43 c 6.402,2.35 12.613,4.1 18.625,5.28 6.011,1.17 11.878,1.76 17.597,1.76 15.403,0 26.903,-3.85 34.504,-11.55 7.602,-7.7 11.402,-19.36 11.402,-34.98"
         style="fill:#000000;fill-opacity:1;fill-rule:nonzero;stroke:none"
         id="path499" />
      <path
         d="m 487.316,1586.75 h 21.122 v -16.39 l -16.43,-30.54 h -11.731 l 7.039,30.54 v 16.39"
         style="fill:#000000;fill-opacity:1;fill-rule:nonzero;stroke:none"
         id="path501" />
      <path
         d="m 623.781,1616.08 c 0,12.81 -2.715,22.86 -8.14,30.14 -5.426,7.28 -12.883,10.93 -22.368,10.93 -9.484,0 -16.937,-3.65 -22.367,-10.93 -5.426,-7.28 -8.14,-17.33 -8.14,-30.14 0,-12.81 2.714,-22.85 8.14,-30.14 5.43,-7.28 12.883,-10.92 22.367,-10.92 9.485,0 16.942,3.64 22.368,10.92 5.425,7.29 8.14,17.33 8.14,30.14 m -61.015,36.37 c 3.765,6.36 8.531,11.08 14.3,14.16 5.77,3.08 12.653,4.62 20.645,4.62 13.297,0 24.09,-5.07 32.375,-15.22 8.312,-10.12 12.469,-23.43 12.469,-39.93 0,-16.5 -4.157,-29.82 -12.469,-39.96 -8.285,-10.12 -19.078,-15.19 -32.375,-15.19 -7.992,0 -14.875,1.55 -20.645,4.62 -5.769,3.09 -10.535,7.8 -14.3,14.16 v -16.43 H 546.34 v 147.84 h 16.426 v -58.67"
         style="fill:#000000;fill-opacity:1;fill-rule:nonzero;stroke:none"
         id="path503" />
      <path
         d="m 670.723,1711.12 h 15.656 c 9.68,-14.98 16.918,-29.65 21.707,-44 4.816,-14.32 7.223,-28.56 7.223,-42.71 0,-14.23 -2.407,-28.55 -7.223,-42.98 -4.789,-14.39 -12.027,-29.05 -21.707,-43.96 h -15.656 c 8.679,14.54 15.144,29 19.398,43.37 4.277,14.38 6.414,28.9 6.414,43.57 0,14.64 -2.137,29.09 -6.414,43.37 -4.254,14.3 -10.719,28.75 -19.398,43.34"
         style="fill:#000000;fill-opacity:1;fill-rule:nonzero;stroke:none"
         id="path505" />
      <path
         d="m 4037.83,1980.41 c -8.72,-14.6 -15.21,-29.04 -19.47,-43.34 -4.23,-14.28 -6.34,-28.74 -6.34,-43.38 0,-14.67 2.12,-29.19 6.38,-43.56 4.28,-14.37 10.76,-28.83 19.43,-43.37 h -15.65 c -9.68,14.91 -16.93,29.56 -21.75,43.96 -4.79,14.42 -7.18,28.74 -7.18,42.97 0,14.15 2.38,28.39 7.14,42.72 4.8,14.35 12.06,29.01 21.79,44 h 15.65"
         style="fill:#000000;fill-opacity:1;fill-rule:nonzero;stroke:none"
         id="path507" />
      <path
         d="m 4150.91,1935.82 v -16.43 c -4.94,2.35 -9.9,4.11 -14.89,5.29 -4.96,1.17 -9.97,1.75 -15.03,1.75 -11.32,0 -20.12,-3.6 -26.4,-10.81 -6.26,-7.19 -9.39,-17.27 -9.39,-30.25 0,-12.98 3.13,-23.08 9.39,-30.29 6.28,-7.19 15.08,-10.78 26.4,-10.78 5.06,0 10.07,0.59 15.03,1.76 4.99,1.17 9.95,2.94 14.89,5.28 v -16.43 c -4.89,-1.56 -9.96,-2.73 -15.22,-3.52 -5.23,-0.78 -10.8,-1.17 -16.72,-1.17 -16.08,0 -28.87,4.96 -38.35,14.89 -9.46,9.95 -14.19,23.37 -14.19,40.26 0,17.13 4.78,30.6 14.34,40.4 9.58,9.83 22.69,14.75 39.34,14.75 5.4,0 10.67,-0.4 15.8,-1.18 5.16,-0.78 10.16,-1.95 15,-3.52"
         style="fill:#000000;fill-opacity:1;fill-rule:nonzero;stroke:none"
         id="path509" />
      <path
         d="m 4187.9,1856.04 h 21.12 v -16.4 l -16.43,-30.54 h -11.73 l 7.04,30.54 v 16.4"
         style="fill:#000000;fill-opacity:1;fill-rule:nonzero;stroke:none"
         id="path511" />
      <path
         d="m 4319.67,1921.74 v 58.67 h 16.43 v -147.84 h -16.43 V 1849 c -3.76,-6.36 -8.53,-11.08 -14.3,-14.16 -5.77,-3.08 -12.69,-4.62 -20.75,-4.62 -13.23,0 -24,5.06 -32.3,15.18 -8.29,10.15 -12.43,23.47 -12.43,39.97 0,16.5 4.14,29.81 12.43,39.93 8.3,10.14 19.07,15.22 32.3,15.22 8.06,0 14.98,-1.54 20.75,-4.63 5.77,-3.07 10.54,-7.79 14.3,-14.15 m -61.01,-36.37 c 0,-12.81 2.7,-22.86 8.1,-30.14 5.43,-7.28 12.88,-10.93 22.37,-10.93 9.46,0 16.91,3.65 22.37,10.93 5.45,7.28 8.17,17.33 8.17,30.14 0,12.81 -2.72,22.85 -8.17,30.14 -5.46,7.28 -12.91,10.92 -22.37,10.92 -9.49,0 -16.94,-3.64 -22.37,-10.92 -5.4,-7.29 -8.1,-17.33 -8.1,-30.14"
         style="fill:#000000;fill-opacity:1;fill-rule:nonzero;stroke:none"
         id="path513" />
      <path
         d="m 4371.31,1980.41 h 15.65 c 9.68,-14.99 16.92,-29.65 21.71,-44 4.81,-14.33 7.22,-28.57 7.22,-42.72 0,-14.23 -2.41,-28.55 -7.22,-42.97 -4.79,-14.4 -12.03,-29.05 -21.71,-43.96 h -15.65 c 8.67,14.54 15.14,29 19.39,43.37 4.28,14.37 6.42,28.89 6.42,43.56 0,14.64 -2.14,29.1 -6.42,43.38 -4.25,14.3 -10.72,28.74 -19.39,43.34"
         style="fill:#000000;fill-opacity:1;fill-rule:nonzero;stroke:none"
         id="path515" />
    </g>
    <g
       id="g665"
       transform="matrix(0.03527778,0,0,-0.03527778,-61.935454,180.59451)">
      <path
         d="M 850.379,3334.39 V 152.164"
         style="fill:none;stroke:#000000;stroke-width:28.346;stroke-linecap:butt;stroke-linejoin:miter;stroke-miterlimit:10;stroke-dasharray:none;stroke-opacity:1"
         id="path667" />
      <path
         d="m 850.379,3440.7 70.867,-141.74 -70.867,35.43 -70.863,-35.43"
         style="fill:#000000;fill-opacity:1;fill-rule:evenodd;stroke:none"
         id="path669" />
      <path
         d="m 850.379,3440.7 70.867,-141.74 -70.867,35.43 -70.863,-35.43 z"
         style="fill:none;stroke:#000000;stroke-width:28.346;stroke-linecap:butt;stroke-linejoin:miter;stroke-miterlimit:10;stroke-dasharray:none;stroke-opacity:1"
         id="path671" />
      <path
         d="m 850.379,45.8633 -70.863,141.7307 70.863,-35.43 70.867,35.43"
         style="fill:#000000;fill-opacity:1;fill-rule:evenodd;stroke:none"
         id="path673" />
      <path
         d="m 850.379,45.8633 -70.863,141.7307 70.863,-35.43 70.867,35.43 z"
         style="fill:none;stroke:#000000;stroke-width:28.346;stroke-linecap:butt;stroke-linejoin:miter;stroke-miterlimit:10;stroke-dasharray:none;stroke-opacity:1"
         id="path675" />
      <path
         d="M 152.164,751.168 H 4198.95"
         style="fill:none;stroke:#000000;stroke-width:28.346;stroke-linecap:butt;stroke-linejoin:miter;stroke-miterlimit:10;stroke-dasharray:none;stroke-opacity:1"
         id="path677" />
      <path
         d="m 45.8633,751.168 141.7307,70.867 -35.43,-70.867 35.43,-70.863"
         style="fill:#000000;fill-opacity:1;fill-rule:evenodd;stroke:none"
         id="path679" />
      <path
         d="m 45.8633,751.168 141.7307,70.867 -35.43,-70.867 35.43,-70.863 z"
         style="fill:none;stroke:#000000;stroke-width:28.346;stroke-linecap:butt;stroke-linejoin:miter;stroke-miterlimit:10;stroke-dasharray:none;stroke-opacity:1"
         id="path681" />
      <path
         d="m 4305.25,751.168 -141.73,-70.863 35.43,70.863 -35.43,70.867"
         style="fill:#000000;fill-opacity:1;fill-rule:evenodd;stroke:none"
         id="path683" />
      <path
         d="m 4305.25,751.168 -141.73,-70.863 35.43,70.863 -35.43,70.867 z"
         style="fill:none;stroke:#000000;stroke-width:28.346;stroke-linecap:butt;stroke-linejoin:miter;stroke-miterlimit:10;stroke-dasharray:none;stroke-opacity:1"
         id="path685" />
      <path
         d="M 1218.88,1105.49 H 2395.24 V 2281.85 H 1218.88 Z"
         style="fill:#0000ff;fill-opacity:1;fill-rule:nonzero;stroke:none"
         id="path687" />
      <path
         d="M 1218.88,1105.49 H 2395.24 V 2281.85 H 1218.88 Z"
         style="fill:none;stroke:#000000;stroke-width:28.346;stroke-linecap:butt;stroke-linejoin:miter;stroke-miterlimit:10;stroke-dasharray:none;stroke-opacity:1"
         id="path689" />
      <path
         d="m 2724.53,500.656 h 81.8 v -18.773 h -108.86 v 18.773 c 8.8,9.313 20.78,21.805 35.93,37.473 15.18,15.691 24.72,25.812 28.6,30.359 7.41,8.508 12.58,15.719 15.51,21.633 2.96,5.914 4.44,11.723 4.44,17.418 0,9.313 -3.24,16.902 -9.72,22.77 -6.45,5.863 -14.87,8.796 -25.26,8.796 -7.36,0 -15.13,-1.355 -23.32,-4.07 -8.17,-2.711 -16.89,-6.832 -26.18,-12.355 v 23.468 c 9.44,3.86 18.25,6.782 26.44,8.762 8.21,1.981 15.73,2.969 22.55,2.969 17.94,0 32.25,-4.508 42.93,-13.527 10.68,-8.997 16.02,-21.024 16.02,-36.082 0,-7.137 -1.33,-13.907 -3.99,-20.313 -2.67,-6.402 -7.52,-13.957 -14.56,-22.66 -1.95,-2.246 -8.11,-8.75 -18.48,-19.504 -10.36,-10.758 -24.98,-25.801 -43.85,-45.137"
         style="fill:#000000;fill-opacity:1;fill-rule:nonzero;stroke:none"
         id="path691" />
      <path
         d="m 2974.23,525.223 h -5.84 c -0.17,-2.129 -0.39,-4.121 -0.66,-5.977 -0.27,-1.859 -0.75,-3.484 -1.46,-4.879 -1.59,-3.203 -3.72,-5.512 -6.38,-6.929 -2.64,-1.391 -4.94,-2.09 -6.89,-2.09 -3.18,0 -5.88,0.711 -8.11,2.129 -2.2,1.441 -4.01,3.25 -5.43,5.425 -1.39,2.2 -2.4,4.692 -3.04,7.481 -0.61,2.785 -0.91,5.609 -0.91,8.469 0,3.375 0.03,7.418 0.11,12.136 0.09,4.719 0.28,9.727 0.54,15.032 0.27,5.304 0.63,10.648 1.07,16.023 0.44,5.402 0.93,10.551 1.47,15.437 h 33.4 v 23.469 h -98.34 c -9.53,0 -17.22,-3.594 -23.06,-10.781 -5.84,-7.188 -10.71,-16.988 -14.59,-29.406 h 4.5 l 5.32,7.699 c 2.3,3.18 5.12,5.477 8.47,6.894 3.37,1.418 6.47,2.125 9.28,2.125 h 12.46 l -7.66,-60.718 c -0.54,-4.426 -1.82,-8.106 -3.85,-11.035 -2.03,-2.911 -4.19,-5.684 -6.49,-8.325 -2.49,-3.007 -4.72,-5.746 -6.68,-8.214 -1.92,-2.469 -2.89,-5.559 -2.89,-9.278 0,-3.371 1.32,-6.512 3.96,-9.422 2.67,-2.91 6.04,-4.363 10.12,-4.363 2.47,0 5.11,0.711 7.92,2.125 2.84,1.395 5.23,4.133 7.19,8.215 0.88,1.762 1.57,3.875 2.09,6.344 0.53,2.468 1.07,5.121 1.61,7.957 1.95,10.777 3.81,22.976 5.57,36.593 1.76,13.614 3.54,30.321 5.32,50.121 h 30.03 c -0.9,-10.121 -2.08,-20.25 -3.52,-30.394 -1.42,-10.121 -2.13,-19.996 -2.13,-29.629 0,-1.344 0.04,-2.992 0.11,-4.949 0.1,-1.93 0.23,-3.91 0.41,-5.942 0.19,-2.027 0.43,-3.968 0.69,-5.828 0.27,-1.859 0.59,-3.375 0.95,-4.547 2.5,-8.089 5.8,-14.164 9.91,-18.222 4.1,-4.059 8.64,-6.086 13.6,-6.086 5.13,0 9.68,1.269 13.64,3.812 3.98,2.567 7.3,5.891 9.94,9.973 2.66,4.082 4.7,8.738 6.12,13.969 1.42,5.258 2.13,10.453 2.13,15.586"
         style="fill:#000000;fill-opacity:1;fill-rule:nonzero;stroke:none"
         id="path693" />
      <path
         d="m 546.141,2679.05 h 81.8 v -18.78 H 519.078 v 18.78 c 8.801,9.31 20.781,21.8 35.934,37.47 15.179,15.69 24.715,25.81 28.601,30.36 7.407,8.5 12.575,15.71 15.508,21.63 2.961,5.92 4.438,11.72 4.438,17.42 0,9.31 -3.239,16.9 -9.715,22.77 -6.453,5.86 -14.875,8.8 -25.266,8.8 -7.355,0 -15.129,-1.36 -23.316,-4.07 -8.168,-2.72 -16.895,-6.84 -26.184,-12.36 v 23.47 c 9.438,3.86 18.25,6.78 26.438,8.76 8.214,1.98 15.73,2.97 22.55,2.97 17.942,0 32.254,-4.51 42.938,-13.53 10.68,-8.99 16.023,-21.02 16.023,-36.08 0,-7.14 -1.332,-13.91 -4,-20.31 -2.664,-6.4 -7.515,-13.96 -14.554,-22.66 -1.957,-2.25 -8.118,-8.75 -18.481,-19.51 -10.363,-10.75 -24.98,-25.8 -43.851,-45.13"
         style="fill:#000000;fill-opacity:1;fill-rule:nonzero;stroke:none"
         id="path695" />
      <path
         d="m 795.836,2703.61 h -5.832 c -0.168,-2.13 -0.391,-4.12 -0.66,-5.97 -0.266,-1.86 -0.758,-3.49 -1.465,-4.88 -1.59,-3.21 -3.715,-5.51 -6.379,-6.93 -2.641,-1.4 -4.938,-2.09 -6.895,-2.09 -3.175,0 -5.878,0.71 -8.101,2.12 -2.203,1.45 -4.012,3.26 -5.43,5.43 -1.39,2.2 -2.406,4.69 -3.043,7.48 -0.609,2.79 -0.914,5.61 -0.914,8.47 0,3.37 0.035,7.42 0.11,12.14 0.097,4.72 0.281,9.73 0.55,15.03 0.266,5.3 0.621,10.65 1.063,16.02 0.437,5.41 0.93,10.55 1.465,15.44 h 33.402 v 23.47 h -98.336 c -9.535,0 -17.223,-3.59 -23.066,-10.78 -5.84,-7.19 -10.703,-16.99 -14.59,-29.41 h 4.508 l 5.316,7.7 c 2.297,3.18 5.121,5.48 8.473,6.9 3.371,1.41 6.465,2.12 9.273,2.12 h 12.469 l -7.664,-60.72 c -0.539,-4.42 -1.82,-8.1 -3.852,-11.04 -2.027,-2.9 -4.191,-5.68 -6.488,-8.32 -2.492,-3 -4.719,-5.74 -6.672,-8.21 -1.933,-2.47 -2.898,-5.56 -2.898,-9.28 0,-3.37 1.32,-6.51 3.961,-9.42 2.664,-2.91 6.035,-4.36 10.117,-4.36 2.472,0 5.109,0.7 7.922,2.12 2.836,1.4 5.23,4.13 7.187,8.22 0.879,1.76 1.574,3.87 2.09,6.34 0.535,2.47 1.074,5.12 1.613,7.96 1.953,10.77 3.813,22.97 5.575,36.59 1.757,13.61 3.531,30.32 5.316,50.12 h 30.027 c -0.902,-10.12 -2.078,-20.25 -3.519,-30.39 -1.418,-10.12 -2.125,-20 -2.125,-29.63 0,-1.35 0.035,-2.99 0.109,-4.95 0.098,-1.93 0.231,-3.91 0.402,-5.94 0.196,-2.03 0.43,-3.98 0.696,-5.83 0.269,-1.86 0.59,-3.38 0.953,-4.55 2.496,-8.09 5.797,-14.16 9.902,-18.22 4.106,-4.06 8.641,-6.09 13.602,-6.09 5.133,0 9.68,1.27 13.64,3.82 3.985,2.56 7.297,5.89 9.938,9.97 2.664,4.08 4.703,8.74 6.121,13.97 1.418,5.26 2.129,10.45 2.129,15.58"
         style="fill:#000000;fill-opacity:1;fill-rule:nonzero;stroke:none"
         id="path697" />
      <path
         d="m 4273.02,892.805 h 28.16 v 96.215 l -30.51,-7.043 v 14.082 l 29.96,7.041 h 16.98 V 892.805 h 28.16 v -14.078 h -72.75 v 14.078"
         style="fill:#000000;fill-opacity:1;fill-rule:nonzero;stroke:none"
         id="path699" />
      <path
         d="m 1253.27,3245.52 h 60.13 v -14.07 h -80.44 v 14.07 c 6.6,6.63 15.58,15.53 26.95,26.7 11.36,11.17 18.52,18.37 21.45,21.59 5.55,6.07 9.42,11.2 11.62,15.4 2.22,4.21 3.34,8.34 3.34,12.4 0,6.62 -2.43,12.02 -7.3,16.2 -4.84,4.18 -11.14,6.27 -18.92,6.27 -5.52,0 -11.35,-1.17 -17.49,-3.52 -6.13,-2.32 -12.68,-5.84 -19.65,-10.56 v 18.78 c 6.97,3.1 13.48,5.43 19.54,7 6.06,1.59 11.61,2.38 16.65,2.38 13.27,0 23.85,-3.22 31.75,-9.68 7.9,-6.45 11.84,-15.07 11.84,-25.85 0,-5.13 -0.99,-9.99 -2.97,-14.59 -1.95,-4.57 -5.51,-9.97 -10.66,-16.21 -1.45,-1.61 -5.98,-6.27 -13.61,-13.97 -7.6,-7.7 -18.34,-18.48 -32.23,-32.34"
         style="fill:#000000;fill-opacity:1;fill-rule:nonzero;stroke:none"
         id="path701" />
      <path
         d="m 1203.59,3395.32 c 0,11.48 -2.02,22.08 -6.05,31.79 -4.01,9.72 -9.57,17.94 -16.68,24.63 -7.27,6.87 -15.8,12.25 -25.6,16.14 -9.78,3.89 -20.26,5.83 -31.46,5.83 -11.37,0 -21.95,-1.98 -31.75,-5.94 -9.78,-3.96 -18.05,-9.15 -24.82,-15.55 -7.44,-7.01 -13.17,-15.34 -17.2,-24.97 -4.01,-9.63 -6.01,-20.35 -6.01,-32.16 0,-10.75 1.89,-20.91 5.68,-30.47 3.79,-9.55 9.15,-17.91 16.1,-25.07 6.94,-7.17 15.3,-12.8 25.08,-16.91 9.8,-4.1 20.77,-6.16 32.92,-6.16 12.15,0 23.15,2.09 33,6.27 9.88,4.18 18.29,9.85 25.23,17.02 6.97,7.16 12.29,15.52 15.99,25.07 3.71,9.56 5.57,19.72 5.57,30.48 m -28.16,-1.55 c 0,-10.95 -0.91,-19.76 -2.72,-26.43 -1.78,-6.65 -4.15,-12.71 -7.11,-18.19 -1.86,-3.54 -4.31,-6.76 -7.37,-9.64 -3.03,-2.89 -6.38,-5.33 -10.05,-7.33 -3.64,-1.98 -7.56,-3.54 -11.77,-4.66 -4.2,-1.1 -8.41,-1.65 -12.61,-1.65 -4.67,0 -9.15,0.59 -13.46,1.76 -4.27,1.2 -8.25,2.86 -11.91,4.98 -3.64,2.16 -6.91,4.71 -9.79,7.67 -2.89,2.95 -5.26,6.15 -7.12,9.57 -3.73,7.09 -6.23,14.18 -7.47,21.26 -1.25,7.12 -1.87,14.67 -1.87,22.66 0,10.93 1.05,20.17 3.15,27.73 2.1,7.55 4.24,13.46 6.42,17.74 4.05,7.99 9.77,14.17 17.16,18.52 7.4,4.37 15.77,6.56 25.11,6.56 9.36,0 17.66,-2.22 24.9,-6.67 7.23,-4.43 13.04,-10.78 17.42,-19.07 2.63,-4.89 4.81,-11.26 6.52,-19.1 1.71,-7.82 2.57,-16.39 2.57,-25.71 m -18.08,-19.1 c -0.31,2.67 -0.64,5.82 -0.95,9.46 -0.29,3.64 -0.44,7.33 -0.44,11.07 0,3.77 0.15,7.51 0.44,11.23 0.31,3.71 0.64,6.74 0.95,9.09 l -3.52,0.25 c -2.66,-8.31 -7.82,-12.46 -15.47,-12.46 h -30.03 c -3.13,0 -6.11,0.81 -8.95,2.46 -2.81,1.66 -5,4.99 -6.56,10 l -3.52,-0.25 c 0.32,-2.96 0.63,-6.15 0.95,-9.57 0.32,-3.4 0.48,-6.98 0.48,-10.75 0,-3.74 -0.16,-7.43 -0.48,-11.07 -0.32,-3.64 -0.63,-6.79 -0.95,-9.46 l 3.52,-0.26 c 1.73,5.02 3.97,8.34 6.71,9.98 2.74,1.66 5.9,2.49 9.49,2.49 h 29.34 c 3.27,0 6.28,-0.87 9.02,-2.6 2.74,-1.71 4.89,-5 6.45,-9.87 l 3.52,0.26"
         style="fill:#000000;fill-opacity:1;fill-rule:nonzero;stroke:none"
         id="path703" />
      <path
         d="m 4226.69,1014.25 c 0,11.49 -2.02,22.09 -6.05,31.79 -4.01,9.73 -9.57,17.94 -16.68,24.64 -7.26,6.87 -15.8,12.25 -25.6,16.13 -9.77,3.89 -20.26,5.83 -31.46,5.83 -11.36,0 -21.95,-1.98 -31.75,-5.94 -9.78,-3.96 -18.05,-9.14 -24.82,-15.54 -7.44,-7.02 -13.17,-15.34 -17.2,-24.97 -4.01,-9.64 -6.01,-20.35 -6.01,-32.16 0,-10.76 1.89,-20.913 5.68,-30.468 3.79,-9.558 9.15,-17.917 16.1,-25.082 6.94,-7.16 15.3,-12.796 25.08,-16.902 9.8,-4.105 20.77,-6.16 32.92,-6.16 12.15,0 23.15,2.09 33,6.27 9.88,4.179 18.29,9.851 25.23,17.011 6.97,7.164 12.3,15.524 15.99,25.082 3.71,9.559 5.57,19.719 5.57,30.469 m -28.16,-1.54 c 0,-10.95 -0.91,-19.761 -2.71,-26.437 -1.79,-6.648 -4.16,-12.711 -7.12,-18.187 -1.86,-3.543 -4.31,-6.758 -7.37,-9.641 -3.03,-2.886 -6.38,-5.328 -10.04,-7.336 -3.65,-1.976 -7.57,-3.531 -11.77,-4.656 -4.21,-1.098 -8.41,-1.648 -12.62,-1.648 -4.67,0 -9.15,0.586 -13.45,1.761 -4.28,1.196 -8.25,2.86 -11.92,4.985 -3.64,2.152 -6.91,4.707 -9.79,7.664 -2.88,2.957 -5.26,6.148 -7.12,9.57 -3.73,7.09 -6.23,14.176 -7.47,21.266 -1.25,7.113 -1.87,14.669 -1.87,22.659 0,10.93 1.05,20.17 3.15,27.72 2.1,7.55 4.24,13.47 6.42,17.75 4.06,7.99 9.77,14.16 17.16,18.51 7.4,4.38 15.78,6.57 25.11,6.57 9.36,0 17.67,-2.23 24.9,-6.68 7.23,-4.42 13.04,-10.78 17.42,-19.06 2.63,-4.89 4.81,-11.26 6.52,-19.11 1.71,-7.82 2.57,-16.39 2.57,-25.7 m -18.08,-19.101 c -0.31,2.664 -0.63,5.817 -0.95,9.461 -0.29,3.64 -0.44,7.33 -0.44,11.07 0,3.77 0.15,7.5 0.44,11.22 0.32,3.71 0.64,6.75 0.95,9.09 l -3.52,0.26 c -2.66,-8.31 -7.82,-12.47 -15.47,-12.47 h -30.03 c -3.13,0 -6.11,0.82 -8.95,2.46 -2.81,1.66 -5,5 -6.56,10.01 l -3.52,-0.26 c 0.32,-2.95 0.64,-6.15 0.95,-9.57 0.32,-3.4 0.48,-6.97 0.48,-10.74 0,-3.74 -0.16,-7.43 -0.48,-11.07 -0.31,-3.644 -0.63,-6.797 -0.95,-9.461 l 3.52,-0.257 c 1.74,5.011 3.97,8.338 6.71,9.968 2.74,1.66 5.91,2.5 9.49,2.5 h 29.34 c 3.27,0 6.28,-0.87 9.02,-2.61 2.74,-1.71 4.89,-4.995 6.45,-9.858 l 3.52,0.257"
         style="fill:#000000;fill-opacity:1;fill-rule:nonzero;stroke:none"
         id="path705" />
      <path
         d="m 1307.05,560.715 c 0,11.488 -2.01,22.086 -6.05,31.789 -4.01,9.73 -9.57,17.941 -16.68,24.641 -7.26,6.867 -15.79,12.246 -25.6,16.132 -9.77,3.887 -20.26,5.828 -31.45,5.828 -11.37,0 -21.96,-1.976 -31.76,-5.937 -9.78,-3.961 -18.05,-9.145 -24.82,-15.547 -7.43,-7.016 -13.17,-15.34 -17.2,-24.969 -4.01,-9.632 -6.01,-20.351 -6.01,-32.156 0,-10.758 1.89,-20.914 5.68,-30.473 3.79,-9.554 9.16,-17.918 16.1,-25.078 6.94,-7.164 15.3,-12.797 25.08,-16.902 9.8,-4.109 20.78,-6.16 32.93,-6.16 12.14,0 23.14,2.09 33,6.269 9.87,4.18 18.28,9.852 25.22,17.012 6.97,7.164 12.3,15.524 15.99,25.082 3.71,9.555 5.57,19.715 5.57,30.469 m -28.16,-1.539 c 0,-10.953 -0.91,-19.766 -2.71,-26.438 -1.79,-6.648 -4.16,-12.711 -7.12,-18.187 -1.85,-3.543 -4.31,-6.758 -7.36,-9.641 -3.04,-2.887 -6.39,-5.332 -10.05,-7.336 -3.65,-1.98 -7.57,-3.531 -11.77,-4.656 -4.21,-1.098 -8.41,-1.648 -12.61,-1.648 -4.68,0 -9.16,0.585 -13.46,1.757 -4.28,1.2 -8.25,2.86 -11.92,4.989 -3.64,2.152 -6.91,4.703 -9.79,7.664 -2.88,2.957 -5.25,6.144 -7.11,9.57 -3.74,7.086 -6.24,14.176 -7.48,21.266 -1.25,7.113 -1.87,14.664 -1.87,22.66 0,10.926 1.05,20.164 3.15,27.719 2.1,7.554 4.24,13.468 6.42,17.746 4.06,7.992 9.77,14.164 17.16,18.515 7.4,4.375 15.78,6.563 25.11,6.563 9.37,0 17.66,-2.223 24.9,-6.672 7.24,-4.426 13.04,-10.781 17.42,-19.067 2.64,-4.886 4.81,-11.257 6.52,-19.101 1.72,-7.824 2.57,-16.391 2.57,-25.703 m -18.08,-19.106 c -0.31,2.664 -0.63,5.821 -0.95,9.461 -0.29,3.641 -0.44,7.332 -0.44,11.074 0,3.762 0.15,7.504 0.44,11.219 0.32,3.715 0.64,6.746 0.95,9.094 l -3.52,0.258 c -2.66,-8.313 -7.82,-12.469 -15.47,-12.469 h -30.03 c -3.13,0 -6.11,0.82 -8.95,2.457 -2.8,1.664 -4.99,5 -6.56,10.012 l -3.52,-0.258 c 0.32,-2.957 0.64,-6.148 0.95,-9.57 0.32,-3.399 0.48,-6.981 0.48,-10.743 0,-3.742 -0.16,-7.433 -0.48,-11.074 -0.31,-3.64 -0.63,-6.797 -0.95,-9.461 l 3.52,-0.254 c 1.74,5.008 3.97,8.332 6.71,9.973 2.74,1.66 5.9,2.492 9.5,2.492 h 29.33 c 3.28,0 6.28,-0.867 9.02,-2.601 2.74,-1.715 4.89,-5 6.45,-9.864 l 3.52,0.254"
         style="fill:#000000;fill-opacity:1;fill-rule:nonzero;stroke:none"
         id="path707" />
      <path
         d="m 2430.97,562.133 c 0,11.488 -2.02,22.086 -6.05,31.789 -4.01,9.726 -9.57,17.941 -16.69,24.64 -7.25,6.868 -15.78,12.247 -25.59,16.133 -9.77,3.887 -20.26,5.828 -31.46,5.828 -11.36,0 -21.95,-1.98 -31.75,-5.937 -9.78,-3.961 -18.05,-9.145 -24.82,-15.547 -7.43,-7.016 -13.16,-15.34 -17.2,-24.973 -4.01,-9.628 -6.01,-20.347 -6.01,-32.156 0,-10.754 1.89,-20.91 5.68,-30.469 3.79,-9.558 9.15,-17.918 16.1,-25.078 6.94,-7.164 15.3,-12.797 25.08,-16.902 9.8,-4.109 20.78,-6.16 32.92,-6.16 12.15,0 23.15,2.09 33,6.269 9.88,4.18 18.29,9.852 25.23,17.012 6.97,7.164 12.29,15.523 15.98,25.078 3.72,9.559 5.58,19.715 5.58,30.473 m -28.16,-1.543 c 0,-10.949 -0.9,-19.762 -2.71,-26.434 -1.79,-6.648 -4.16,-12.711 -7.12,-18.187 -1.86,-3.543 -4.31,-6.758 -7.37,-9.645 -3.03,-2.883 -6.38,-5.328 -10.04,-7.332 -3.64,-1.98 -7.57,-3.531 -11.77,-4.656 -4.21,-1.102 -8.41,-1.648 -12.62,-1.648 -4.66,0 -9.15,0.585 -13.45,1.757 -4.28,1.2 -8.25,2.86 -11.92,4.989 -3.64,2.148 -6.9,4.703 -9.79,7.66 -2.88,2.961 -5.25,6.148 -7.11,9.57 -3.74,7.09 -6.24,14.18 -7.48,21.27 -1.25,7.113 -1.87,14.664 -1.87,22.656 0,10.93 1.05,20.168 3.15,27.722 2.1,7.551 4.24,13.469 6.42,17.747 4.05,7.992 9.78,14.164 17.16,18.515 7.41,4.375 15.78,6.563 25.11,6.563 9.37,0 17.66,-2.223 24.9,-6.672 7.24,-4.426 13.04,-10.781 17.41,-19.067 2.65,-4.89 4.82,-11.257 6.53,-19.105 1.71,-7.82 2.57,-16.387 2.57,-25.703 m -18.08,-19.102 c -0.32,2.664 -0.63,5.817 -0.95,9.461 -0.29,3.641 -0.44,7.332 -0.44,11.074 0,3.762 0.15,7.504 0.44,11.219 0.32,3.715 0.63,6.746 0.95,9.094 l -3.52,0.254 c -2.66,-8.309 -7.82,-12.465 -15.47,-12.465 h -30.03 c -3.13,0 -6.11,0.82 -8.95,2.457 -2.81,1.66 -4.99,5 -6.56,10.008 l -3.52,-0.254 c 0.32,-2.957 0.64,-6.148 0.95,-9.57 0.32,-3.399 0.48,-6.981 0.48,-10.743 0,-3.742 -0.16,-7.433 -0.48,-11.074 -0.31,-3.644 -0.63,-6.797 -0.95,-9.461 l 3.52,-0.258 c 1.74,5.012 3.97,8.336 6.71,9.977 2.74,1.66 5.9,2.492 9.5,2.492 h 29.33 c 3.28,0 6.28,-0.867 9.02,-2.605 2.74,-1.711 4.89,-4.996 6.45,-9.864 l 3.52,0.258"
         style="fill:#000000;fill-opacity:1;fill-rule:nonzero;stroke:none"
         id="path709" />
      <path
         d="m 1378.42,482.168 c 4.45,7.723 9.76,13.418 15.95,17.086 6.21,3.691 13.51,5.535 21.89,5.535 11.29,0 19.99,-3.836 26.1,-11.512 6.14,-7.652 9.21,-18.554 9.21,-32.707 v -63.726 h -16.43 v 63.14 c 0,10.411 -1.91,18.137 -5.72,23.172 -3.79,5.035 -9.58,7.555 -17.38,7.555 -9.5,0 -17.04,-3.07 -22.58,-9.203 -5.53,-6.113 -8.29,-14.449 -8.29,-25.008 v -59.656 h -16.43 v 63.14 c 0,10.461 -1.9,18.2 -5.72,23.207 -3.79,5.012 -9.64,7.52 -17.56,7.52 -9.39,0 -16.85,-3.082 -22.41,-9.242 -5.52,-6.133 -8.28,-14.457 -8.28,-24.969 v -59.656 h -16.43 v 105.597 h 16.43 v -16.425 c 4.08,6.406 8.98,11.136 14.7,14.191 5.72,3.055 12.52,4.582 20.39,4.582 7.92,0 14.66,-1.93 20.2,-5.793 5.58,-3.863 9.69,-9.473 12.36,-16.828"
         style="fill:#000000;fill-opacity:1;fill-rule:nonzero;stroke:none"
         id="path711" />
      <path
         d="m 2428.18,511.645 h 28.64 l 35.86,-96.875 36.01,96.875 h 28.56 V 368.496 h -18.77 v 125.805 l -36.23,-97.645 h -19.07 l -36.22,97.645 V 368.496 h -18.78 v 143.149"
         style="fill:#000000;fill-opacity:1;fill-rule:nonzero;stroke:none"
         id="path713" />
      <path
         d="m 655.094,1127.63 c 0,11.49 -2.02,22.09 -6.051,31.8 -4.008,9.72 -9.57,17.94 -16.684,24.63 -7.261,6.87 -15.793,12.25 -25.593,16.14 -9.778,3.88 -20.266,5.83 -31.461,5.83 -11.364,0 -21.95,-1.98 -31.75,-5.94 -9.778,-3.96 -18.055,-9.14 -24.825,-15.55 -7.429,-7.02 -13.164,-15.34 -17.195,-24.97 -4.012,-9.63 -6.015,-20.35 -6.015,-32.16 0,-10.75 1.894,-20.91 5.683,-30.46 3.789,-9.56 9.156,-17.92 16.098,-25.09 6.941,-7.16 15.301,-12.79 25.078,-16.9 9.805,-4.1 20.777,-6.16 32.926,-6.16 12.148,0 23.148,2.09 33,6.27 9.875,4.18 18.285,9.85 25.226,17.02 6.969,7.16 12.297,15.52 15.989,25.07 3.714,9.56 5.574,19.72 5.574,30.47 m -28.16,-1.54 c 0,-10.95 -0.907,-19.76 -2.715,-26.43 -1.785,-6.65 -4.157,-12.71 -7.114,-18.19 -1.855,-3.54 -4.312,-6.76 -7.371,-9.64 -3.031,-2.88 -6.379,-5.33 -10.046,-7.33 -3.641,-1.98 -7.563,-3.54 -11.77,-4.66 -4.203,-1.1 -8.406,-1.65 -12.613,-1.65 -4.668,0 -9.153,0.58 -13.453,1.76 -4.282,1.19 -8.25,2.86 -11.918,4.98 -3.645,2.16 -6.907,4.71 -9.789,7.67 -2.887,2.95 -5.258,6.15 -7.114,9.57 -3.742,7.09 -6.234,14.18 -7.48,21.26 -1.246,7.12 -1.871,14.67 -1.871,22.66 0,10.93 1.05,20.17 3.152,27.72 2.106,7.56 4.242,13.47 6.418,17.75 4.059,7.99 9.777,14.17 17.16,18.52 7.406,4.37 15.778,6.56 25.117,6.56 9.36,0 17.661,-2.23 24.895,-6.67 7.234,-4.43 13.043,-10.78 17.418,-19.07 2.64,-4.89 4.816,-11.26 6.527,-19.1 1.711,-7.82 2.567,-16.39 2.567,-25.71 m -18.079,-19.1 c -0.316,2.67 -0.636,5.82 -0.953,9.46 -0.293,3.64 -0.441,7.34 -0.441,11.07 0,3.77 0.148,7.51 0.441,11.23 0.317,3.71 0.637,6.74 0.953,9.09 l -3.519,0.25 c -2.664,-8.31 -7.82,-12.46 -15.473,-12.46 h -30.031 c -3.129,0 -6.109,0.82 -8.945,2.46 -2.813,1.66 -5,4.99 -6.563,10 l -3.519,-0.25 c 0.316,-2.96 0.633,-6.15 0.953,-9.57 0.316,-3.4 0.476,-6.98 0.476,-10.75 0,-3.73 -0.16,-7.43 -0.476,-11.07 -0.32,-3.64 -0.637,-6.79 -0.953,-9.46 l 3.519,-0.26 c 1.735,5.02 3.973,8.34 6.707,9.98 2.739,1.66 5.907,2.49 9.5,2.49 h 29.332 c 3.274,0 6.282,-0.87 9.02,-2.6 2.738,-1.71 4.89,-5 6.453,-9.87 l 3.519,0.26"
         style="fill:#000000;fill-opacity:1;fill-rule:nonzero;stroke:none"
         id="path715" />
      <path
         d="m 726.461,1049.09 c 4.449,7.72 9.766,13.42 15.949,17.08 6.211,3.69 13.508,5.54 21.891,5.54 11.293,0 19.996,-3.84 26.105,-11.51 6.137,-7.65 9.203,-18.56 9.203,-32.71 v -63.724 h -16.425 v 63.134 c 0,10.42 -1.907,18.14 -5.719,23.18 -3.789,5.03 -9.582,7.55 -17.379,7.55 -9.512,0 -17.039,-3.07 -22.59,-9.2 -5.523,-6.11 -8.285,-14.45 -8.285,-25.01 v -59.654 h -16.426 v 63.134 c 0,10.47 -1.906,18.2 -5.719,23.21 -3.789,5.01 -9.644,7.52 -17.566,7.52 -9.387,0 -16.852,-3.08 -22.402,-9.24 -5.524,-6.14 -8.286,-14.46 -8.286,-24.97 v -59.654 h -16.425 v 105.594 h 16.425 v -16.42 c 4.083,6.4 8.985,11.13 14.704,14.18 5.718,3.06 12.515,4.59 20.386,4.59 7.918,0 14.653,-1.93 20.203,-5.79 5.575,-3.87 9.692,-9.47 12.356,-16.83"
         style="fill:#000000;fill-opacity:1;fill-rule:nonzero;stroke:none"
         id="path717" />
      <path
         d="m 640.918,2247.3 c 0,11.49 -2.016,22.09 -6.047,31.79 -4.012,9.73 -9.57,17.94 -16.683,24.64 -7.262,6.87 -15.793,12.25 -25.594,16.13 -9.778,3.89 -20.266,5.84 -31.461,5.84 -11.367,0 -21.949,-1.99 -31.754,-5.95 -9.777,-3.96 -18.051,-9.14 -24.82,-15.54 -7.434,-7.02 -13.164,-15.34 -17.2,-24.97 -4.007,-9.63 -6.011,-20.35 -6.011,-32.16 0,-10.76 1.894,-20.91 5.683,-30.47 3.789,-9.56 9.153,-17.91 16.098,-25.08 6.941,-7.16 15.301,-12.8 25.078,-16.9 9.801,-4.11 20.777,-6.16 32.926,-6.16 12.148,0 23.148,2.09 33,6.27 9.875,4.18 18.285,9.85 25.226,17.01 6.965,7.16 12.297,15.52 15.989,25.08 3.714,9.56 5.57,19.72 5.57,30.47 m -28.16,-1.54 c 0,-10.95 -0.903,-19.76 -2.711,-26.44 -1.785,-6.64 -4.156,-12.71 -7.113,-18.18 -1.86,-3.55 -4.317,-6.76 -7.372,-9.64 -3.031,-2.89 -6.378,-5.33 -10.046,-7.34 -3.641,-1.98 -7.567,-3.53 -11.77,-4.66 -4.203,-1.09 -8.41,-1.64 -12.613,-1.64 -4.668,0 -9.153,0.58 -13.457,1.76 -4.278,1.19 -8.25,2.86 -11.914,4.98 -3.645,2.15 -6.907,4.71 -9.793,7.67 -2.883,2.95 -5.254,6.14 -7.114,9.57 -3.738,7.09 -6.23,14.17 -7.476,21.26 -1.25,7.11 -1.871,14.67 -1.871,22.66 0,10.93 1.051,20.17 3.152,27.72 2.102,7.56 4.242,13.47 6.418,17.75 4.059,7.99 9.777,14.16 17.16,18.52 7.407,4.37 15.778,6.56 25.114,6.56 9.363,0 17.664,-2.23 24.898,-6.68 7.234,-4.42 13.039,-10.77 17.418,-19.06 2.637,-4.89 4.812,-11.26 6.523,-19.11 1.711,-7.82 2.567,-16.39 2.567,-25.7 m -18.074,-19.1 c -0.317,2.66 -0.637,5.82 -0.954,9.46 -0.292,3.64 -0.441,7.33 -0.441,11.07 0,3.77 0.149,7.51 0.441,11.22 0.317,3.71 0.637,6.75 0.954,9.09 l -3.52,0.26 c -2.664,-8.31 -7.824,-12.47 -15.473,-12.47 H 545.66 c -3.129,0 -6.109,0.82 -8.945,2.46 -2.813,1.66 -5,5 -6.563,10.01 l -3.523,-0.26 c 0.32,-2.95 0.637,-6.14 0.953,-9.57 0.32,-3.39 0.477,-6.97 0.477,-10.74 0,-3.74 -0.157,-7.43 -0.477,-11.07 -0.316,-3.64 -0.633,-6.8 -0.953,-9.46 l 3.523,-0.26 c 1.735,5.01 3.969,8.34 6.707,9.98 2.739,1.66 5.903,2.49 9.496,2.49 h 29.336 c 3.274,0 6.282,-0.87 9.02,-2.6 2.738,-1.72 4.887,-5 6.453,-9.87 l 3.52,0.26"
         style="fill:#000000;fill-opacity:1;fill-rule:nonzero;stroke:none"
         id="path719" />
      <path
         d="m 638.133,2196.81 h 28.637 l 35.859,-96.87 36.008,96.87 h 28.562 v -143.14 h -18.773 v 125.8 l -36.227,-97.64 h -19.066 l -36.227,97.64 v -125.8 h -18.773 v 143.14"
         style="fill:#000000;fill-opacity:1;fill-rule:nonzero;stroke:none"
         id="path721" />
    </g>
  </g>
</svg>
